^D:\SCHOOLWORK\SEMESTER1\NETWORKPROGRAMMING\FINALPROJECT\PROJECT3\NETWORKINGPROJECT3\AUTHENTICATIONSERVER\AUTHENTICATION.CPP|D:\SCHOOLWORK\SEMESTER1\NETWORKPROGRAMMING\FINALPROJECT\PROJECT3\NETWORKINGPROJECT3\AUTHENTICATIONSERVER\DATABASEHELPER.CPP|D:\SCHOOLWORK\SEMESTER1\NETWORKPROGRAMMING\FINALPROJECT\PROJECT3\NETWORKINGPROJECT3\AUTHENTICATIONSERVER\MAIN_AUTHENTICATION.CPP|D:\SCHOOLWORK\SEMESTER1\NETWORKPROGRAMMING\FINALPROJECT\PROJECT3\NETWORKINGPROJECT3\SHARED\BUFFER.CPP
D:\SCHOOLWORK\SEMESTER1\NETWORKPROGRAMMING\FINALPROJECT\PROJECT3\NETWORKINGPROJECT3\AUTHENTICATIONSERVER\DEBUG\VC141.PDB
D:\SCHOOLWORK\SEMESTER1\NETWORKPROGRAMMING\FINALPROJECT\PROJECT3\NETWORKINGPROJECT3\AUTHENTICATIONSERVER\DEBUG\VC141.IDB
D:\SCHOOLWORK\SEMESTER1\NETWORKPROGRAMMING\FINALPROJECT\PROJECT3\NETWORKINGPROJECT3\AUTHENTICATIONSERVER\DEBUG\BUFFER.OBJ
D:\SCHOOLWORK\SEMESTER1\NETWORKPROGRAMMING\FINALPROJECT\PROJECT3\NETWORKINGPROJECT3\AUTHENTICATIONSERVER\DEBUG\AUTHENTICATION.OBJ
D:\SCHOOLWORK\SEMESTER1\NETWORKPROGRAMMING\FINALPROJECT\PROJECT3\NETWORKINGPROJECT3\AUTHENTICATIONSERVER\DEBUG\DATABASEHELPER.OBJ
D:\SCHOOLWORK\SEMESTER1\NETWORKPROGRAMMING\FINALPROJECT\PROJECT3\NETWORKINGPROJECT3\AUTHENTICATIONSERVER\DEBUG\MAIN_AUTHENTICATION.OBJ
^D:\SCHOOLWORK\SEMESTER1\NETWORKPROGRAMMING\FINALPROJECT\PROJECT3\NETWORKINGPROJECT3\SHARED\BUFFER.CPP
D:\SCHOOLWORK\SEMESTER1\NETWORKPROGRAMMING\FINALPROJECT\PROJECT3\NETWORKINGPROJECT3\AUTHENTICATIONSERVER\DEBUG\VC141.PDB
^D:\SCHOOLWORK\SEMESTER1\NETWORKPROGRAMMING\FINALPROJECT\PROJECT3\NETWORKINGPROJECT3\AUTHENTICATIONSERVER\AUTHENTICATION.CPP
D:\SCHOOLWORK\SEMESTER1\NETWORKPROGRAMMING\FINALPROJECT\PROJECT3\NETWORKINGPROJECT3\AUTHENTICATIONSERVER\DEBUG\VC141.PDB
D:\SCHOOLWORK\SEMESTER1\NETWORKPROGRAMMING\FINALPROJECT\PROJECT3\NETWORKINGPROJECT3\AUTHENTICATIONSERVER\DEBUG\VC141.IDB
D:\SCHOOLWORK\SEMESTER1\NETWORKPROGRAMMING\FINALPROJECT\PROJECT3\NETWORKINGPROJECT3\AUTHENTICATIONSERVER\DEBUG\AUTHENTICATION.OBJ
^D:\SCHOOLWORK\SEMESTER1\NETWORKPROGRAMMING\FINALPROJECT\PROJECT3\NETWORKINGPROJECT3\AUTHENTICATIONSERVER\DATABASEHELPER.CPP
D:\SCHOOLWORK\SEMESTER1\NETWORKPROGRAMMING\FINALPROJECT\PROJECT3\NETWORKINGPROJECT3\AUTHENTICATIONSERVER\DEBUG\VC141.PDB
^D:\SCHOOLWORK\SEMESTER1\NETWORKPROGRAMMING\FINALPROJECT\PROJECT3\NETWORKINGPROJECT3\AUTHENTICATIONSERVER\MAIN_AUTHENTICATION.CPP
D:\SCHOOLWORK\SEMESTER1\NETWORKPROGRAMMING\FINALPROJECT\PROJECT3\NETWORKINGPROJECT3\AUTHENTICATIONSERVER\DEBUG\VC141.PDB
^D:\SCHOOLWORK\SEMESTER1\NETWORKPROGRAMMING\FINALPROJECT\PROJECT3\NETWORKINGPROJECT3\AUTHENTICATIONSERVER\AUTHENTICATION.CPP|D:\SCHOOLWORK\SEMESTER1\NETWORKPROGRAMMING\FINALPROJECT\PROJECT3\NETWORKINGPROJECT3\AUTHENTICATIONSERVER\MAIN_AUTHENTICATION.CPP
D:\SCHOOLWORK\SEMESTER1\NETWORKPROGRAMMING\FINALPROJECT\PROJECT3\NETWORKINGPROJECT3\AUTHENTICATIONSERVER\DEBUG\VC141.PDB
D:\SCHOOLWORK\SEMESTER1\NETWORKPROGRAMMING\FINALPROJECT\PROJECT3\NETWORKINGPROJECT3\AUTHENTICATIONSERVER\DEBUG\VC141.IDB
D:\SCHOOLWORK\SEMESTER1\NETWORKPROGRAMMING\FINALPROJECT\PROJECT3\NETWORKINGPROJECT3\AUTHENTICATIONSERVER\DEBUG\AUTHENTICATION.OBJ
